> Energy losses               :       142.17  (KW)
> Tiempo total de CPU (sec)   :       251.91

 -----------------------------------------------------------------------------
    #         NAME     VM      VA       PG       QG       SG       PD       QD
                      (pu)   (ang)     (KW)   (KVar)    (KVA)     (KW)   (KVar)
 -----------------------------------------------------------------------------
    0 SE           1.0000    0.00  3857.17  2402.72  4544.31     0.00     0.00
    1 Bus 1        0.9971    0.01     0.00     0.00     0.00   100.00    60.00
    2 Bus 2        0.9867    0.10     0.00     0.00     0.00    90.00    40.00
    3 Bus 3        0.9820    0.17     0.00     0.00     0.00   120.00    80.00
    4 Bus 4        0.9774    0.24     0.00     0.00     0.00    60.00    30.00
    5 Bus 5        0.9661    0.25     0.00     0.00     0.00    60.00    20.00
    6 Bus 6        0.9654    0.21     0.00     0.00     0.00   200.00   100.00
    7 Bus 7        0.9654   -0.65     0.00     0.00     0.00   200.00   100.00
    8 Bus 8        0.9626   -0.70     0.00     0.00     0.00    60.00    20.00
    9 Bus 9        0.9641   -0.61     0.00     0.00     0.00    60.00    20.00
   10 Bus 10       0.9642   -0.61     0.00     0.00     0.00    45.00    30.00
   11 Bus 11       0.9645   -0.61     0.00     0.00     0.00    60.00    35.00
   12 Bus 12       0.9619   -0.63     0.00     0.00     0.00    60.00    35.00
   13 Bus 13       0.9611   -0.64     0.00     0.00     0.00   120.00    80.00
   14 Bus 14       0.9579   -0.84     0.00     0.00     0.00    60.00    10.00
   15 Bus 15       0.9566   -0.87     0.00     0.00     0.00    60.00    20.00
   16 Bus 16       0.9547   -0.94     0.00     0.00     0.00    60.00    20.00
   17 Bus 17       0.9541   -0.95     0.00     0.00     0.00    90.00    40.00
   18 Bus 18       0.9952   -0.02     0.00     0.00     0.00    90.00    40.00
   19 Bus 19       0.9794   -0.30     0.00     0.00     0.00    90.00    40.00
   20 Bus 20       0.9750   -0.41     0.00     0.00     0.00    90.00    40.00
   21 Bus 21       0.9716   -0.50     0.00     0.00     0.00    90.00    40.00
   22 Bus 22       0.9831    0.07     0.00     0.00     0.00    90.00    50.00
   23 Bus 23       0.9765   -0.02     0.00     0.00     0.00   420.00   200.00
   24 Bus 24       0.9732   -0.06     0.00     0.00     0.00   420.00   200.00
   25 Bus 25       0.9642    0.29     0.00     0.00     0.00    60.00    25.00
   26 Bus 26       0.9616    0.34     0.00     0.00     0.00    60.00    25.00
   27 Bus 27       0.9504    0.42     0.00     0.00     0.00    60.00    20.00
   28 Bus 28       0.9423    0.50     0.00     0.00     0.00   120.00    70.00
   29 Bus 29       0.9389    0.60     0.00     0.00     0.00   200.00   600.00
   30 Bus 30       0.9348    0.52     0.00     0.00     0.00   150.00    70.00
   31 Bus 31       0.9339    0.50     0.00     0.00     0.00   210.00   100.00
   32 Bus 32       0.9336    0.49     0.00     0.00     0.00    60.00    40.00
 ---------------------------------------------------
   l   k   m   xkm          Ia        Ir         Is
                           (KW)     (KVar)      (KVA)
 ---------------------------------------------------
   1   0   1   1.00     318.62    -162.42     357.63
   2   1   2   1.00     211.42    -107.68     237.26
   3   2   3   1.00     129.84     -66.13     145.71
   4   3   4   1.00     119.54     -60.88     134.15
   5   4   5   1.00     100.88     -87.09     133.27
   6   5   6   1.00       3.64     -12.04      12.57
   8   7   8   1.00      22.29     -16.02      27.45
  10   9  10   1.00      -4.92       1.63       5.18
  11  10  11   1.00      -8.98       2.97       9.45
  12  11  12   1.00      13.73     -10.80      17.47
  13  12  13   1.00       6.78      -8.92      11.20
  15  14  15   1.00      14.48     -10.58      17.94
  16  15  16   1.00       6.85      -9.14      11.42
  17  16  17   1.00       6.22      -4.88       7.91
  18   1  18   1.00      76.35     -72.86     105.54
  19  18  19   1.00      73.53     -66.26      98.98
  20  19  20   1.00      56.58     -66.10      87.01
  21  20  21   1.00      22.45     -29.68      37.21
  22   2  22   1.00      68.32     -46.68      82.75
  23  22  23   1.00      57.70     -45.56      73.52
  24  23  24   1.00      29.02     -22.71      36.85
  25   5  25   1.00      93.81     -47.78     105.28
  26  25  26   1.00      89.06     -45.34      99.94
  27  26  27   1.00      75.55     -66.61     100.73
  28  27  28   1.00      72.22     -62.92      95.78
  29  28  29   1.00      69.19     -35.24      77.64
  30  29  30   1.00      26.85     -26.54      37.75
  31  30  31   1.00      15.54     -18.11      23.86
  32  31  32   1.00       3.03      -4.70       5.59
  33   7  20   1.00     -30.50      30.50      43.13
  34   8  14   1.00      14.90     -14.90      21.07
  35  11  21   1.00     -22.36      22.36      31.63
 ---------------------------------------------------
