ob,Tb,PG,QG,PD,QD,bsh,Type,ap,bp,cp,aq,bq,cq
1,1.00,0.00,0.00,0.00,0.00,0.000,SL,1,0,0,1,0,0
2,1.00,0.00,0.00,8.00,2.80,0.000,PQ,1,0,0,1,0,0
3,1.05,5.20,0.00,0.80,0.40,0.000,PV,1,0,0,1,0,0
4,1.00,0.00,0.00,0.00,0.00,0.000,PQ,1,0,0,1,0,0
5,1.00,0.00,0.00,0.00,0.00,0.000,PQ,1,0,0,1,0,0