num,from,to,raa,rbb,rcc,rba,rca,rcb,rab,rac,rbc,xaa,xbb,xcc,xba,xca,xcb,xab,xac,xbc,yaa,ybb,ycc,yba,yca,ycb,yab,yac,ybc
1,1,2,0.0023,0.0021,0.0024,0.0012,0.0011,0.0010,0.0012,0.0011,0.0010,0.0147,0.0150,0.0148,0.0080,0.0070,0.0080,0.0080,0.0070,0.0080,0.0450,0.0400,0.0350,-0.008,-0.009,-0.011,-0.008,-0.009,-0.011
2,1,3,0.0030,0.0042,0.0042,0.0025,0.0020,0.0040,0.0040,0.0020,0.0040,0.0250,0.0280,0.0280,0.0220,0.0250,0.0280,0.0250,0.0250,0.0280,0.0400,0.0350,0.0280,-0.045,-0.040,-0.032,-0.030,-0.035,-0.032
3,2,3,0.0030,0.0031,0.0033,0.0021,0.0020,0.0020,0.0021,0.0020,0.0020,0.0255,0.0253,0.0250,0.0120,0.0100,0.0120,0.0120,0.0100,0.0120,0.0430,0.0380,0.0250,-0.032,-0.028,-0.032,-0.040,-0.032,-0.028
4,3,4,0.0025,0.0022,0.0026,0.0013,0.0012,0.0010,0.0013,0.0012,0.0010,0.0137,0.0150,0.0146,0.0090,0.0070,0.0090,0.0090,0.0070,0.0090,0.0350,0.0352,0.0340,-0.013,-0.014,-0.013,-0.013,-0.014,-0.013
5,4,5,0.0050,0.0053,0.0054,0.0022,0.0017,0.0022,0.0022,0.0017,0.0022,0.0350,0.0400,0.0370,0.0130,0.0150,0.0150,0.0130,0.0150,0.0150,0.0345,0.0352,0.0343,-0.016,-0.014,-0.016,-0.016,-0.014,-0.016